<svg width="324" height="54" xmlns="http://www.w3.org/2000/svg">

 <title/>
 <g>
  <title>background</title>
  <rect fill="none" id="canvas_background" height="56" width="326" y="-1" x="-1"/>
 </g>
 <g>
  <title>Layer 1</title>
  <text font-style="normal" stroke="null" transform="matrix(0.9053170209133543,0,0,1.1708529596785524,2.25616962185587,-26.39623024864928) " font-weight="bold" xml:space="preserve" text-anchor="start" font-family="Helvetica, Arial, sans-serif" font-size="32" id="svg_5" y="47.210831" x="0.546795" stroke-opacity="null" stroke-width="0" fill="#ffffff">Africa-Bonnes-Affaires</text>
  <text stroke="null" transform="matrix(1.0941468477249146,0,0,1,-4.31457350589335,0) " font-weight="normal" xml:space="preserve" text-anchor="start" font-family="Helvetica, Arial, sans-serif" font-size="18" id="svg_6" y="53.109656" x="45.830586" stroke-opacity="null" stroke-width="0" fill="#ffffff">L'idée des bonnes affaires</text>
 </g>
</svg>